…
Now we can filter by column values and collect the data into R

``` r
df <- db |>
  filter(Location_ID %in% c("E303052", "E309247")) |>
  collect()

df
#> # A tibble: 1,193 × 70
#>    Ministry_Contact Sampling_Agency Project Project_Name Work_Order_number Location_ID Location_Name    
#>    <chr>            <chr>           <chr>   <chr>        <chr>             <chr>       <chr>            
#>  1 Breanne Hill     74 - Permittee  <NA>    <NA>         VA26A0226         E303052     MINE WATER TREAT…
#>  2 Winnie Chan      74 - Permittee  <NA>    <NA>         FJ2600203         E309247     CONUMA - BRULE M…
#>  3 Winnie Chan      74 - Permittee  <NA>    <NA>         FJ2600007         E309247     CONUMA - BRULE M…
#>  4 Winnie Chan      74 - Permittee  <NA>    <NA>         FJ2600178         E309247     CONUMA - BRULE M…
#>  5 Winnie Chan      74 - Permittee  <NA>    <NA>         FJ2600095         E309247     CONUMA - BRULE M…
#>  6 Winnie Chan      74 - Permittee  <NA>    <NA>         FJ2600009         E309247     CONUMA - BRULE M…
#>  7 Breanne Hill     74 - Permittee  <NA>    <NA>         VA26A1318         E303052     MINE WATER TREAT…
#>  8 Winnie Chan      74 - Permittee  <NA>    <NA>         FJ2600095         E309247     CONUMA - BRULE M…
#>  9 Winnie Chan      74 - Permittee  <NA>    <NA>         FJ2600040         E309247     CONUMA - BRULE M…
#> 10 Breanne Hill     74 - Permittee  <NA>    <NA>         VA26A1318         E303052     MINE WATER TREAT…
#> # ℹ 1,183 more rows
#> # ℹ 63 more variables: Location_Type <chr>, Location_Latitude <dbl>, Location_Longitude <dbl>,
#> #   Location_Elevation <dbl>, Location_Elevation_Units <chr>, Location_Group <chr>,
#> #   Field_Visit_Start_Time <dttm>, Field_Visit_End_Time <dttm>, Field_Visit_Participants <chr>,
#> #   Field_Comment <chr>, Field_Filtered <lgl>, Field_Filtered_Comment <chr>, Field_Preservative <chr>,
#> #   Field_Device_ID <chr>, Field_Device_Type <chr>, Sampling_Context_Tag <chr>,
#> #   Collection_Method <chr>, Medium <chr>, Taxonomy <chr>, Taxonomy_Common_Name <chr>, …
```
…
df
#> # A tibble: 1,193 × 9
#>    Location_ID Location_Name   ren_date   ren_tz Observed_Date_Time  Observed_Property_Name Result_Value
#>    <chr>       <chr>           <date>     <chr>  <dttm>              <chr>                         <dbl>
#>  1 E303052     MINE WATER TRE… 2026-01-05 -08:00 2026-01-05 15:35:00 CD-T                      0.00289  
#>  2 E309247     CONUMA - BRULE… 2026-01-28 -08:00 2026-01-28 12:32:00 V--T                      0.001    
#>  3 E309247     CONUMA - BRULE… 2026-01-02 -08:00 2026-01-02 13:19:00 P--T                      0.008    
#>  4 E309247     CONUMA - BRULE… 2026-01-25 -08:00 2026-01-25 13:08:00 SR-T                      0.322    
#>  5 E309247     CONUMA - BRULE… 2026-01-14 -08:00 2026-01-14 12:59:00 0015                     26.8      
#>  6 E309247     CONUMA - BRULE… 2026-01-04 -08:00 2026-01-04 14:12:00 AS-T                      0.00028  
#>  7 E303052     MINE WATER TRE… 2026-01-19 -08:00 2026-01-19 15:45:00 1110                     27.9      
#>  8 E309247     CONUMA - BRULE… 2026-01-14 -08:00 2026-01-14 12:59:00 0039                    206        
#>  9 E309247     CONUMA - BRULE… 2026-01-07 -08:00 2026-01-07 13:20:00 BI-T                      0.0001   
#> 10 E303052     MINE WATER TRE… 2026-01-19 -08:00 2026-01-19 15:45:00 CD-D                      0.0000214
#> # ℹ 1,183 more rows
#> # ℹ 2 more variables: Result_Unit <chr>, Analysis_Method_ID <chr>
```
…
First we'll get the whole data set again

``` r
df <- renmods_connect(dates = c("2024-12-15", "2025-01-15")) |>
  collect()
#> ℹ Connecting to "this_yr" and "yr_2_5" data for dates between 2024-12-15 and 2025-01-15
#> ✔ this_yr: Last downloaded 2026-04-14 11:26:37 (within 1 week(s))
#> ✔ yr_2_5: Last downloaded 2026-04-14 11:27:35 (within 26 week(s))
```

What time columns do we have?

``` r
select(df, contains("Time"))
#> # A tibble: 127,293 × 8
#>    Field_Visit_Start_Time Field_Visit_End_Time Observed_Date_Time  Observed_Date_Time_Start
#>    <dttm>                 <dttm>               <dttm>              <dttm>                  
#>  1 2025-01-09 15:27:00    NA                   2025-01-09 15:27:00 2025-01-09 15:27:00     
#>  2 2025-01-02 11:55:00    NA                   2025-01-02 11:55:00 2025-01-02 11:55:00     
#>  3 2025-01-02 11:50:00    NA                   2025-01-02 11:50:00 2025-01-02 11:50:00     
#>  4 2025-01-09 15:25:00    NA                   2025-01-09 15:25:00 2025-01-09 15:25:00     
#>  5 2025-01-07 01:00:00    NA                   2025-01-07 01:00:00 2025-01-07 01:00:00     
#>  6 2025-01-08 13:00:00    NA                   2025-01-08 13:00:00 2025-01-08 13:00:00     
#>  7 2025-01-06 01:00:00    NA                   2025-01-06 01:00:00 2025-01-06 01:00:00     
#>  8 2025-01-06 12:20:00    NA                   2025-01-06 12:20:00 2025-01-06 12:20:00     
#>  9 2025-01-08 11:16:00    NA                   2025-01-08 11:16:00 2025-01-08 11:16:00     
#> 10 2025-01-08 14:05:00    2025-01-08 14:30:00  2025-01-08 14:20:00 2025-01-08 14:20:00     
#> # ℹ 127,283 more rows
#> # ℹ 4 more variables: Observed_Date_Time_End <dttm>, Analyzed_Date_Time <dttm>,
#> #   Lab_Arrival_Date_Time <dttm>, Lab_Prepared_Date_Time <dttm>
```
…
``` r
df <- renmods_connect(
  dates = c("2024-12-15", "2025-01-15"),
  convert_times = FALSE
) |>
  collect()
#> ℹ Connecting to "this_yr" and "yr_2_5" data for dates between 2024-12-15 and 2025-01-15
#> ✔ this_yr: Last downloaded 2026-04-14 11:26:37 (within 1 week(s))
#> ✔ yr_2_5: Last downloaded 2026-04-14 11:27:35 (within 26 week(s))

# Note columns are character now
select(df, contains("Time"))
#> # A tibble: 127,293 × 8
#>    Field_Visit_Start_Time Field_Visit_End_Time   Observed_Date_Time     Observed_Date_Time_Start
#>    <chr>                  <chr>                  <chr>                  <chr>                   
#>  1 2025-01-09T14:27-08:00 <NA>                   2025-01-09T14:27-08:00 2025-01-09T14:27-08:00  
#>  2 2025-01-02T10:55-08:00 <NA>                   2025-01-02T10:55-08:00 2025-01-02T10:55-08:00  
#>  3 2025-01-02T10:50-08:00 <NA>                   2025-01-02T10:50-08:00 2025-01-02T10:50-08:00  
#>  4 2025-01-09T14:25-08:00 <NA>                   2025-01-09T14:25-08:00 2025-01-09T14:25-08:00  
#>  5 2025-01-07T00:00-08:00 <NA>                   2025-01-07T00:00-08:00 2025-01-07T00:00-08:00  
#>  6 2025-01-08T12:00-08:00 <NA>                   2025-01-08T12:00-08:00 2025-01-08T12:00-08:00  
#>  7 2025-01-06T00:00-08:00 <NA>                   2025-01-06T00:00-08:00 2025-01-06T00:00-08:00  
#>  8 2025-01-06T11:20-08:00 <NA>                   2025-01-06T11:20-08:00 2025-01-06T11:20-08:00  
#>  9 2025-01-08T10:16-08:00 <NA>                   2025-01-08T10:16-08:00 2025-01-08T10:16-08:00  
#> 10 2025-01-08T13:05-08:00 2025-01-08T13:30-08:00 2025-01-08T13:20-08:00 2025-01-08T13:20-08:00  
#> # ℹ 127,283 more rows
#> # ℹ 4 more variables: Observed_Date_Time_End <chr>, Analyzed_Date_Time <chr>,
#> #   Lab_Arrival_Date_Time <chr>, Lab_Prepared_Date_Time <chr>
```
…
