…
Now we can filter by column values and collect the data into R

``` r
df <- db |>
  filter(Location_ID %in% c("E303052", "E309247")) |>
  collect()

df
#> # A tibble: 318 × 68
#>    Ministry_Contact Sampling_Agency Project Project_Name Work_Order_number Location_ID
#>    <chr>            <chr>           <chr>   <chr>        <chr>             <chr>      
#>  1 Breanne Hill     74 - Permittee  <NA>    <NA>         VA26A0226         E303052    
#>  2 Winnie Chan      74 - Permittee  <NA>    <NA>         FJ2600007         E309247    
#>  3 Winnie Chan      74 - Permittee  <NA>    <NA>         FJ2600040         E309247    
#>  4 Winnie Chan      74 - Permittee  <NA>    <NA>         FJ2600007         E309247    
#>  5 Winnie Chan      74 - Permittee  <NA>    <NA>         FJ2600040         E309247    
#>  6 Winnie Chan      74 - Permittee  <NA>    <NA>         FJ2600007         E309247    
#>  7 Winnie Chan      74 - Permittee  <NA>    <NA>         FJ2600040         E309247    
#>  8 Winnie Chan      74 - Permittee  <NA>    <NA>         FJ2600007         E309247    
#>  9 Winnie Chan      74 - Permittee  <NA>    <NA>         FJ2600040         E309247    
#> 10 Winnie Chan      74 - Permittee  <NA>    <NA>         FJ2600007         E309247    
#> # ℹ 308 more rows
#> # ℹ 62 more variables: Location_Name <chr>, Location_Type <chr>, Location_Latitude <dbl>,
#> #   Location_Longitude <dbl>, Location_Elevation <dbl>, Location_Elevation_Units <chr>,
#> #   Location_Group <chr>, Field_Visit_Start_Time <dttm>, Field_Visit_End_Time <dttm>,
#> #   Field_Visit_Participants <chr>, Field_Comment <chr>, Field_Filtered <lgl>,
#> #   Field_Filtered_Comment <chr>, Field_Preservative <chr>, Field_Device_ID <chr>,
#> #   Field_Device_Type <chr>, Sampling_Context_Tag <chr>, Collection_Method <chr>, …
```
…
df
#> # A tibble: 318 × 7
#>    Location_ID Location_Name       Observed_Date_Time  Observed_Property_Name Result_Value
#>    <chr>       <chr>               <dttm>              <chr>                         <dbl>
#>  1 E303052     MINE WATER TREATME… 2026-01-05 22:35:00 CD-T                        0.00289
#>  2 E309247     CONUMA - BRULE MIN… 2026-01-02 20:19:01 P--T                        0.008  
#>  3 E309247     CONUMA - BRULE MIN… 2026-01-07 20:20:00 BI-T                        0.0001 
#>  4 E309247     CONUMA - BRULE MIN… 2026-01-02 20:19:00 CU-T                        0.001  
#>  5 E309247     CONUMA - BRULE MIN… 2026-01-07 20:20:00 SB-D                        0.00105
#>  6 E309247     CONUMA - BRULE MIN… 2026-01-02 20:19:00 B--D                        0.298  
#>  7 E309247     CONUMA - BRULE MIN… 2026-01-07 20:20:00 NA-T                      252      
#>  8 E309247     CONUMA - BRULE MIN… 2026-01-02 20:19:00 S--D                      378      
#>  9 E309247     CONUMA - BRULE MIN… 2026-01-07 20:20:00 U--D                        0.0229 
#> 10 E309247     CONUMA - BRULE MIN… 2026-01-02 20:19:00 1106                        0.4    
#> # ℹ 308 more rows
#> # ℹ 2 more variables: Result_Unit <chr>, Analysis_Method_ID <chr>
```
…
